trial 1/50
property □_[11.0, 50.0] ((((throttle < 8.8) && ◇_[0.0, 0.05] (40.0 < throttle)) || ((40.0 < throttle) && ◇_[0.0, 0.05] (throttle < 8.8))) ==> □_[1.0, 5.0] (abs(mu) < 0.008))
algorithm adaptive
  control points: 10 10 10 10 10
  exploration ratio: 0.25
  budget: 100
starting matlab ... connected (4s)
initializing 'AbstractFuelControl_M1' ...WARNING: set_param not implemented
 done (16s)
....

inputs
  t__ = [0.0; 5.0; 10.0; 15.0; 20.0; 25.0; 30.0; 35.0; 40.0; 45.0; 50.0]
  u__ = [0.0 1100.0; 45.825 1100.0; 61.1 1100.0; 61.1 1100.0; 45.825 1100.0; 0.0 1100.0; 61.1 1100.0; 61.1 1100.0; 30.55 1100.0; 38.1875 1100.0; 38.1875 1100.0]
falsified with robustness -3.2341528302604755E-4

statistics
  simulations 4
  total time  32s
  peak memory 280466 kb

trial 2/50
property □_[11.0, 50.0] ((((throttle < 8.8) && ◇_[0.0, 0.05] (40.0 < throttle)) || ((40.0 < throttle) && ◇_[0.0, 0.05] (throttle < 8.8))) ==> □_[1.0, 5.0] (abs(mu) < 0.008))
algorithm adaptive
  control points: 10 10 10 10 10
  exploration ratio: 0.25
  budget: 100
.

inputs
  t__ = [0.0; 5.0; 10.0; 15.0; 20.0; 25.0; 30.0; 35.0; 40.0; 45.0; 50.0]
  u__ = [15.275 1100.0; 61.1 1100.0; 61.1 1100.0; 15.275 1100.0; 61.1 1100.0; 30.55 1100.0; 61.1 1100.0; 0.0 1100.0; 30.55 1100.0; 61.1 1100.0; 61.1 1100.0]
falsified with robustness -6.024935456239236E-4

statistics
  simulations 1
  total time  2s
  peak memory 373988 kb

trial 3/50
property □_[11.0, 50.0] ((((throttle < 8.8) && ◇_[0.0, 0.05] (40.0 < throttle)) || ((40.0 < throttle) && ◇_[0.0, 0.05] (throttle < 8.8))) ==> □_[1.0, 5.0] (abs(mu) < 0.008))
algorithm adaptive
  control points: 10 10 10 10 10
  exploration ratio: 0.25
  budget: 100
.

inputs
  t__ = [0.0; 5.0; 10.0; 15.0; 20.0; 25.0; 30.0; 35.0; 40.0; 45.0; 50.0]
  u__ = [61.1 1100.0; 61.1 1100.0; 61.1 1100.0; 0.0 1100.0; 61.1 1100.0; 61.1 1100.0; 15.275 1100.0; 30.55 1100.0; 0.0 1100.0; 7.6375 1100.0; 7.6375 1100.0]
falsified with robustness -5.605643368262817E-4

statistics
  simulations 1
  total time  2s
  peak memory 542168 kb

trial 4/50
property □_[11.0, 50.0] ((((throttle < 8.8) && ◇_[0.0, 0.05] (40.0 < throttle)) || ((40.0 < throttle) && ◇_[0.0, 0.05] (throttle < 8.8))) ==> □_[1.0, 5.0] (abs(mu) < 0.008))
algorithm adaptive
  control points: 10 10 10 10 10
  exploration ratio: 0.25
  budget: 100
.

inputs
  t__ = [0.0; 5.0; 10.0; 15.0; 20.0; 25.0; 30.0; 35.0; 40.0; 45.0; 50.0]
  u__ = [0.0 1100.0; 45.825 1100.0; 61.1 1100.0; 30.55 1100.0; 0.0 1100.0; 0.0 1100.0; 45.825 1100.0; 61.1 1100.0; 0.0 1100.0; 0.0 1100.0; 0.0 1100.0]
falsified with robustness -5.98947779595578E-4

statistics
  simulations 1
  total time  2s
  peak memory 545863 kb

trial 5/50
property □_[11.0, 50.0] ((((throttle < 8.8) && ◇_[0.0, 0.05] (40.0 < throttle)) || ((40.0 < throttle) && ◇_[0.0, 0.05] (throttle < 8.8))) ==> □_[1.0, 5.0] (abs(mu) < 0.008))
algorithm adaptive
  control points: 10 10 10 10 10
  exploration ratio: 0.25
  budget: 100
..

inputs
  t__ = [0.0; 5.0; 10.0; 15.0; 20.0; 25.0; 30.0; 35.0; 40.0; 45.0; 50.0]
  u__ = [61.1 1100.0; 30.55 1100.0; 30.55 1100.0; 0.0 1100.0; 61.1 1100.0; 61.1 1100.0; 0.0 1100.0; 45.825 1100.0; 30.55 1100.0; 0.0 1100.0; 0.0 1100.0]
falsified with robustness -6.013091933876405E-4

statistics
  simulations 2
  total time  4s
  peak memory 875338 kb

trial 6/50
property □_[11.0, 50.0] ((((throttle < 8.8) && ◇_[0.0, 0.05] (40.0 < throttle)) || ((40.0 < throttle) && ◇_[0.0, 0.05] (throttle < 8.8))) ==> □_[1.0, 5.0] (abs(mu) < 0.008))
algorithm adaptive
  control points: 10 10 10 10 10
  exploration ratio: 0.25
  budget: 100
......

inputs
  t__ = [0.0; 5.0; 10.0; 15.0; 20.0; 25.0; 30.0; 35.0; 40.0; 45.0; 50.0]
  u__ = [0.0 1100.0; 61.1 1100.0; 45.825 1100.0; 30.55 1100.0; 30.55 1100.0; 15.275 1100.0; 15.275 1100.0; 45.825 1100.0; 0.0 1100.0; 45.825 1100.0; 45.825 1100.0]
falsified with robustness -3.7578885431788916E-4

statistics
  simulations 6
  total time  13s
  peak memory 880004 kb

trial 7/50
property □_[11.0, 50.0] ((((throttle < 8.8) && ◇_[0.0, 0.05] (40.0 < throttle)) || ((40.0 < throttle) && ◇_[0.0, 0.05] (throttle < 8.8))) ==> □_[1.0, 5.0] (abs(mu) < 0.008))
algorithm adaptive
  control points: 10 10 10 10 10
  exploration ratio: 0.25
  budget: 100
...

inputs
  t__ = [0.0; 5.0; 10.0; 15.0; 20.0; 25.0; 30.0; 35.0; 40.0; 45.0; 50.0]
  u__ = [0.0 1050.0; 38.1875 1050.0; 34.36875 1050.0; 45.825 1050.0; 0.0 1050.0; 0.0 1050.0; 0.0 1050.0; 61.1 1050.0; 30.55 1050.0; 61.1 1050.0; 61.1 1050.0]
falsified with robustness -9.269243845656111E-5

statistics
  simulations 3
  total time  7s
  peak memory 893442 kb

trial 8/50
property □_[11.0, 50.0] ((((throttle < 8.8) && ◇_[0.0, 0.05] (40.0 < throttle)) || ((40.0 < throttle) && ◇_[0.0, 0.05] (throttle < 8.8))) ==> □_[1.0, 5.0] (abs(mu) < 0.008))
algorithm adaptive
  control points: 10 10 10 10 10
  exploration ratio: 0.25
  budget: 100
............

inputs
  t__ = [0.0; 5.0; 10.0; 15.0; 20.0; 25.0; 30.0; 35.0; 40.0; 45.0; 50.0]
  u__ = [0.0 1100.0; 0.0 1100.0; 45.825 1100.0; 0.0 1100.0; 0.0 1100.0; 30.55 1100.0; 61.1 1100.0; 45.825 1100.0; 0.0 1100.0; 30.55 1100.0; 30.55 1100.0]
falsified with robustness -3.7337241680913263E-4

statistics
  simulations 12
  total time  27s
  peak memory 919171 kb

trial 9/50
property □_[11.0, 50.0] ((((throttle < 8.8) && ◇_[0.0, 0.05] (40.0 < throttle)) || ((40.0 < throttle) && ◇_[0.0, 0.05] (throttle < 8.8))) ==> □_[1.0, 5.0] (abs(mu) < 0.008))
algorithm adaptive
  control points: 10 10 10 10 10
  exploration ratio: 0.25
  budget: 100
.................

inputs
  t__ = [0.0; 5.0; 10.0; 15.0; 20.0; 25.0; 30.0; 35.0; 40.0; 45.0; 50.0]
  u__ = [0.0 1050.0; 49.643750000000004 1050.0; 57.28125 1050.0; 38.1875 1050.0; 30.55 1050.0; 45.825 1050.0; 0.0 1050.0; 30.55 1050.0; 61.1 1050.0; 0.0 1050.0; 0.0 1050.0]
falsified with robustness -2.171394460988088E-4

statistics
  simulations 17
  total time  38s
  peak memory 961232 kb

trial 10/50
property □_[11.0, 50.0] ((((throttle < 8.8) && ◇_[0.0, 0.05] (40.0 < throttle)) || ((40.0 < throttle) && ◇_[0.0, 0.05] (throttle < 8.8))) ==> □_[1.0, 5.0] (abs(mu) < 0.008))
algorithm adaptive
  control points: 10 10 10 10 10
  exploration ratio: 0.25
  budget: 100
.

inputs
  t__ = [0.0; 5.0; 10.0; 15.0; 20.0; 25.0; 30.0; 35.0; 40.0; 45.0; 50.0]
  u__ = [0.0 1100.0; 30.55 1100.0; 30.55 1100.0; 61.1 1100.0; 0.0 1100.0; 45.825 1100.0; 0.0 1100.0; 30.55 1100.0; 61.1 1100.0; 30.55 1100.0; 30.55 1100.0]
falsified with robustness -6.055432433764787E-4

statistics
  simulations 1
  total time  2s
  peak memory 965000 kb

trial 11/50
property □_[11.0, 50.0] ((((throttle < 8.8) && ◇_[0.0, 0.05] (40.0 < throttle)) || ((40.0 < throttle) && ◇_[0.0, 0.05] (throttle < 8.8))) ==> □_[1.0, 5.0] (abs(mu) < 0.008))
algorithm adaptive
  control points: 10 10 10 10 10
  exploration ratio: 0.25
  budget: 100
..........

inputs
  t__ = [0.0; 5.0; 10.0; 15.0; 20.0; 25.0; 30.0; 35.0; 40.0; 45.0; 50.0]
  u__ = [15.275 1100.0; 0.0 1100.0; 61.1 1100.0; 45.825 1100.0; 0.0 1100.0; 45.825 1100.0; 61.1 1100.0; 11.45625 1100.0; 49.643750000000004 1100.0; 30.55 1100.0; 30.55 1100.0]
falsified with robustness -3.5909031953807596E-4

statistics
  simulations 10
  total time  23s
  peak memory 990956 kb

trial 12/50
property □_[11.0, 50.0] ((((throttle < 8.8) && ◇_[0.0, 0.05] (40.0 < throttle)) || ((40.0 < throttle) && ◇_[0.0, 0.05] (throttle < 8.8))) ==> □_[1.0, 5.0] (abs(mu) < 0.008))
algorithm adaptive
  control points: 10 10 10 10 10
  exploration ratio: 0.25
  budget: 100
....

inputs
  t__ = [0.0; 5.0; 10.0; 15.0; 20.0; 25.0; 30.0; 35.0; 40.0; 45.0; 50.0]
  u__ = [30.55 1100.0; 61.1 1100.0; 0.0 1100.0; 61.1 1100.0; 15.275 1100.0; 61.1 1100.0; 30.55 1100.0; 30.55 1100.0; 61.1 1100.0; 0.0 1100.0; 0.0 1100.0]
falsified with robustness -5.515382509013803E-4

statistics
  simulations 4
  total time  9s
  peak memory 998881 kb

trial 13/50
property □_[11.0, 50.0] ((((throttle < 8.8) && ◇_[0.0, 0.05] (40.0 < throttle)) || ((40.0 < throttle) && ◇_[0.0, 0.05] (throttle < 8.8))) ==> □_[1.0, 5.0] (abs(mu) < 0.008))
algorithm adaptive
  control points: 10 10 10 10 10
  exploration ratio: 0.25
  budget: 100
................

inputs
  t__ = [0.0; 5.0; 10.0; 15.0; 20.0; 25.0; 30.0; 35.0; 40.0; 45.0; 50.0]
  u__ = [0.0 1100.0; 0.0 1100.0; 30.55 1100.0; 30.55 1100.0; 15.275 1100.0; 61.1 1100.0; 0.0 1100.0; 30.55 1100.0; 15.275 1100.0; 3.81875 1100.0; 3.81875 1100.0]
falsified with robustness -6.030830477088481E-4

statistics
  simulations 16
  total time  37s
  peak memory 1025559 kb

trial 14/50
property □_[11.0, 50.0] ((((throttle < 8.8) && ◇_[0.0, 0.05] (40.0 < throttle)) || ((40.0 < throttle) && ◇_[0.0, 0.05] (throttle < 8.8))) ==> □_[1.0, 5.0] (abs(mu) < 0.008))
algorithm adaptive
  control points: 10 10 10 10 10
  exploration ratio: 0.25
  budget: 100
............

inputs
  t__ = [0.0; 5.0; 10.0; 15.0; 20.0; 25.0; 30.0; 35.0; 40.0; 45.0; 50.0]
  u__ = [61.1 1100.0; 61.1 1100.0; 45.825 1100.0; 30.55 1100.0; 0.0 1100.0; 0.0 1100.0; 61.1 1100.0; 0.0 1100.0; 61.1 1100.0; 30.55 1100.0; 30.55 1100.0]
falsified with robustness -5.998818839012612E-4

statistics
  simulations 12
  total time  27s
  peak memory 1025559 kb

trial 15/50
property □_[11.0, 50.0] ((((throttle < 8.8) && ◇_[0.0, 0.05] (40.0 < throttle)) || ((40.0 < throttle) && ◇_[0.0, 0.05] (throttle < 8.8))) ==> □_[1.0, 5.0] (abs(mu) < 0.008))
algorithm adaptive
  control points: 10 10 10 10 10
  exploration ratio: 0.25
  budget: 100
.......

inputs
  t__ = [0.0; 5.0; 10.0; 15.0; 20.0; 25.0; 30.0; 35.0; 40.0; 45.0; 50.0]
  u__ = [61.1 1100.0; 15.275 1100.0; 0.0 1100.0; 61.1 1100.0; 61.1 1100.0; 30.55 1100.0; 0.0 1100.0; 61.1 1100.0; 0.0 1100.0; 30.55 1100.0; 30.55 1100.0]
falsified with robustness -6.030767825238106E-4

statistics
  simulations 7
  total time  16s
  peak memory 1025559 kb

trial 16/50
property □_[11.0, 50.0] ((((throttle < 8.8) && ◇_[0.0, 0.05] (40.0 < throttle)) || ((40.0 < throttle) && ◇_[0.0, 0.05] (throttle < 8.8))) ==> □_[1.0, 5.0] (abs(mu) < 0.008))
algorithm adaptive
  control points: 10 10 10 10 10
  exploration ratio: 0.25
  budget: 100
..

inputs
  t__ = [0.0; 5.0; 10.0; 15.0; 20.0; 25.0; 30.0; 35.0; 40.0; 45.0; 50.0]
  u__ = [30.55 1100.0; 0.0 1100.0; 30.55 1100.0; 0.0 1100.0; 0.0 1100.0; 45.825 1100.0; 0.0 1100.0; 30.55 1100.0; 45.825 1100.0; 38.1875 1100.0; 38.1875 1100.0]
falsified with robustness -3.7481695217245897E-4

statistics
  simulations 2
  total time  4s
  peak memory 1025559 kb

trial 17/50
property □_[11.0, 50.0] ((((throttle < 8.8) && ◇_[0.0, 0.05] (40.0 < throttle)) || ((40.0 < throttle) && ◇_[0.0, 0.05] (throttle < 8.8))) ==> □_[1.0, 5.0] (abs(mu) < 0.008))
algorithm adaptive
  control points: 10 10 10 10 10
  exploration ratio: 0.25
  budget: 100
...........

inputs
  t__ = [0.0; 5.0; 10.0; 15.0; 20.0; 25.0; 30.0; 35.0; 40.0; 45.0; 50.0]
  u__ = [0.0 1100.0; 45.825 1100.0; 61.1 1100.0; 45.825 1100.0; 45.825 1100.0; 61.1 1100.0; 0.0 1100.0; 61.1 1100.0; 53.4625 1100.0; 30.55 1100.0; 30.55 1100.0]
falsified with robustness -6.025330742733884E-4

statistics
  simulations 11
  total time  25s
  peak memory 1025559 kb

trial 18/50
property □_[11.0, 50.0] ((((throttle < 8.8) && ◇_[0.0, 0.05] (40.0 < throttle)) || ((40.0 < throttle) && ◇_[0.0, 0.05] (throttle < 8.8))) ==> □_[1.0, 5.0] (abs(mu) < 0.008))
algorithm adaptive
  control points: 10 10 10 10 10
  exploration ratio: 0.25
  budget: 100
..

inputs
  t__ = [0.0; 5.0; 10.0; 15.0; 20.0; 25.0; 30.0; 35.0; 40.0; 45.0; 50.0]
  u__ = [0.0 1100.0; 0.0 1100.0; 61.1 1100.0; 61.1 1100.0; 30.55 1100.0; 15.275 1100.0; 15.275 1100.0; 61.1 1100.0; 0.0 1100.0; 0.0 1100.0; 0.0 1100.0]
falsified with robustness -5.999360819679625E-4

statistics
  simulations 2
  total time  4s
  peak memory 1025559 kb

trial 19/50
property □_[11.0, 50.0] ((((throttle < 8.8) && ◇_[0.0, 0.05] (40.0 < throttle)) || ((40.0 < throttle) && ◇_[0.0, 0.05] (throttle < 8.8))) ==> □_[1.0, 5.0] (abs(mu) < 0.008))
algorithm adaptive
  control points: 10 10 10 10 10
  exploration ratio: 0.25
  budget: 100
...

inputs
  t__ = [0.0; 5.0; 10.0; 15.0; 20.0; 25.0; 30.0; 35.0; 40.0; 45.0; 50.0]
  u__ = [0.0 1087.5; 45.825 1087.5; 0.0 1087.5; 0.0 1087.5; 61.1 1087.5; 0.0 1087.5; 61.1 1087.5; 61.1 1087.5; 0.0 1087.5; 61.1 1087.5; 61.1 1087.5]
falsified with robustness -4.698733455255136E-4

statistics
  simulations 3
  total time  6s
  peak memory 1025559 kb

trial 20/50
property □_[11.0, 50.0] ((((throttle < 8.8) && ◇_[0.0, 0.05] (40.0 < throttle)) || ((40.0 < throttle) && ◇_[0.0, 0.05] (throttle < 8.8))) ==> □_[1.0, 5.0] (abs(mu) < 0.008))
algorithm adaptive
  control points: 10 10 10 10 10
  exploration ratio: 0.25
  budget: 100
........

inputs
  t__ = [0.0; 5.0; 10.0; 15.0; 20.0; 25.0; 30.0; 35.0; 40.0; 45.0; 50.0]
  u__ = [0.0 1100.0; 30.55 1100.0; 7.6375 1100.0; 38.1875 1100.0; 61.1 1100.0; 0.0 1100.0; 30.55 1100.0; 15.275 1100.0; 61.1 1100.0; 15.275 1100.0; 15.275 1100.0]
falsified with robustness -6.014030289234265E-4

statistics
  simulations 8
  total time  18s
  peak memory 1032899 kb

trial 21/50
property □_[11.0, 50.0] ((((throttle < 8.8) && ◇_[0.0, 0.05] (40.0 < throttle)) || ((40.0 < throttle) && ◇_[0.0, 0.05] (throttle < 8.8))) ==> □_[1.0, 5.0] (abs(mu) < 0.008))
algorithm adaptive
  control points: 10 10 10 10 10
  exploration ratio: 0.25
  budget: 100
.....................

inputs
  t__ = [0.0; 5.0; 10.0; 15.0; 20.0; 25.0; 30.0; 35.0; 40.0; 45.0; 50.0]
  u__ = [0.0 1100.0; 61.1 1100.0; 15.275 1100.0; 15.275 1100.0; 15.275 1100.0; 0.0 1100.0; 30.55 1100.0; 45.825 1100.0; 53.4625 1100.0; 0.0 1100.0; 0.0 1100.0]
falsified with robustness -4.6217686054973034E-4

statistics
  simulations 21
  total time  46s
  peak memory 1032899 kb

trial 22/50
property □_[11.0, 50.0] ((((throttle < 8.8) && ◇_[0.0, 0.05] (40.0 < throttle)) || ((40.0 < throttle) && ◇_[0.0, 0.05] (throttle < 8.8))) ==> □_[1.0, 5.0] (abs(mu) < 0.008))
algorithm adaptive
  control points: 10 10 10 10 10
  exploration ratio: 0.25
  budget: 100
....

inputs
  t__ = [0.0; 5.0; 10.0; 15.0; 20.0; 25.0; 30.0; 35.0; 40.0; 45.0; 50.0]
  u__ = [30.55 1100.0; 0.0 1100.0; 49.643750000000004 1100.0; 0.0 1100.0; 0.0 1100.0; 30.55 1100.0; 30.55 1100.0; 0.0 1100.0; 61.1 1100.0; 45.825 1100.0; 45.825 1100.0]
falsified with robustness -4.3514991531502095E-4

statistics
  simulations 4
  total time  9s
  peak memory 1032899 kb

trial 23/50
property □_[11.0, 50.0] ((((throttle < 8.8) && ◇_[0.0, 0.05] (40.0 < throttle)) || ((40.0 < throttle) && ◇_[0.0, 0.05] (throttle < 8.8))) ==> □_[1.0, 5.0] (abs(mu) < 0.008))
algorithm adaptive
  control points: 10 10 10 10 10
  exploration ratio: 0.25
  budget: 100
.....

inputs
  t__ = [0.0; 5.0; 10.0; 15.0; 20.0; 25.0; 30.0; 35.0; 40.0; 45.0; 50.0]
  u__ = [0.0 1075.0; 0.0 1075.0; 30.55 1075.0; 30.55 1075.0; 61.1 1075.0; 30.55 1075.0; 61.1 1075.0; 0.0 1075.0; 0.0 1075.0; 61.1 1075.0; 61.1 1075.0]
falsified with robustness -4.172191240672321E-4

statistics
  simulations 5
  total time  10s
  peak memory 1032899 kb

trial 24/50
property □_[11.0, 50.0] ((((throttle < 8.8) && ◇_[0.0, 0.05] (40.0 < throttle)) || ((40.0 < throttle) && ◇_[0.0, 0.05] (throttle < 8.8))) ==> □_[1.0, 5.0] (abs(mu) < 0.008))
algorithm adaptive
  control points: 10 10 10 10 10
  exploration ratio: 0.25
  budget: 100
.....

inputs
  t__ = [0.0; 5.0; 10.0; 15.0; 20.0; 25.0; 30.0; 35.0; 40.0; 45.0; 50.0]
  u__ = [45.825 1100.0; 0.0 1100.0; 61.1 1100.0; 61.1 1100.0; 61.1 1100.0; 30.55 1100.0; 7.6375 1100.0; 61.1 1100.0; 0.0 1100.0; 0.0 1100.0; 0.0 1100.0]
falsified with robustness -5.928453423522731E-4

statistics
  simulations 5
  total time  11s
  peak memory 1032899 kb

trial 25/50
property □_[11.0, 50.0] ((((throttle < 8.8) && ◇_[0.0, 0.05] (40.0 < throttle)) || ((40.0 < throttle) && ◇_[0.0, 0.05] (throttle < 8.8))) ==> □_[1.0, 5.0] (abs(mu) < 0.008))
algorithm adaptive
  control points: 10 10 10 10 10
  exploration ratio: 0.25
  budget: 100
......

inputs
  t__ = [0.0; 5.0; 10.0; 15.0; 20.0; 25.0; 30.0; 35.0; 40.0; 45.0; 50.0]
  u__ = [0.0 1100.0; 30.55 1100.0; 45.825 1100.0; 0.0 1100.0; 0.0 1100.0; 0.0 1100.0; 7.6375 1100.0; 7.6375 1100.0; 30.55 1100.0; 30.55 1100.0; 30.55 1100.0]
falsified with robustness -3.9402431913649477E-4

statistics
  simulations 6
  total time  12s
  peak memory 1032899 kb

trial 26/50
property □_[11.0, 50.0] ((((throttle < 8.8) && ◇_[0.0, 0.05] (40.0 < throttle)) || ((40.0 < throttle) && ◇_[0.0, 0.05] (throttle < 8.8))) ==> □_[1.0, 5.0] (abs(mu) < 0.008))
algorithm adaptive
  control points: 10 10 10 10 10
  exploration ratio: 0.25
  budget: 100
..

inputs
  t__ = [0.0; 5.0; 10.0; 15.0; 20.0; 25.0; 30.0; 35.0; 40.0; 45.0; 50.0]
  u__ = [61.1 1100.0; 22.9125 1100.0; 30.55 1100.0; 45.825 1100.0; 0.0 1100.0; 30.55 1100.0; 0.0 1100.0; 0.0 1100.0; 61.1 1100.0; 61.1 1100.0; 61.1 1100.0]
falsified with robustness -3.305080485360781E-4

statistics
  simulations 2
  total time  4s
  peak memory 1032899 kb

trial 27/50
property □_[11.0, 50.0] ((((throttle < 8.8) && ◇_[0.0, 0.05] (40.0 < throttle)) || ((40.0 < throttle) && ◇_[0.0, 0.05] (throttle < 8.8))) ==> □_[1.0, 5.0] (abs(mu) < 0.008))
algorithm adaptive
  control points: 10 10 10 10 10
  exploration ratio: 0.25
  budget: 100
.

inputs
  t__ = [0.0; 5.0; 10.0; 15.0; 20.0; 25.0; 30.0; 35.0; 40.0; 45.0; 50.0]
  u__ = [61.1 1100.0; 53.4625 1100.0; 30.55 1100.0; 0.0 1100.0; 30.55 1100.0; 0.0 1100.0; 0.0 1100.0; 61.1 1100.0; 61.1 1100.0; 0.0 1100.0; 0.0 1100.0]
falsified with robustness -5.913014531953101E-4

statistics
  simulations 1
  total time  2s
  peak memory 1032899 kb

trial 28/50
property □_[11.0, 50.0] ((((throttle < 8.8) && ◇_[0.0, 0.05] (40.0 < throttle)) || ((40.0 < throttle) && ◇_[0.0, 0.05] (throttle < 8.8))) ==> □_[1.0, 5.0] (abs(mu) < 0.008))
algorithm adaptive
  control points: 10 10 10 10 10
  exploration ratio: 0.25
  budget: 100
...

inputs
  t__ = [0.0; 5.0; 10.0; 15.0; 20.0; 25.0; 30.0; 35.0; 40.0; 45.0; 50.0]
  u__ = [61.1 1100.0; 61.1 1100.0; 49.643750000000004 1100.0; 0.0 1100.0; 42.00625 1100.0; 61.1 1100.0; 0.0 1100.0; 15.275 1100.0; 0.0 1100.0; 11.45625 1100.0; 11.45625 1100.0]
falsified with robustness -5.484424717745531E-4

statistics
  simulations 3
  total time  6s
  peak memory 1032899 kb

trial 29/50
property □_[11.0, 50.0] ((((throttle < 8.8) && ◇_[0.0, 0.05] (40.0 < throttle)) || ((40.0 < throttle) && ◇_[0.0, 0.05] (throttle < 8.8))) ==> □_[1.0, 5.0] (abs(mu) < 0.008))
algorithm adaptive
  control points: 10 10 10 10 10
  exploration ratio: 0.25
  budget: 100
...

inputs
  t__ = [0.0; 5.0; 10.0; 15.0; 20.0; 25.0; 30.0; 35.0; 40.0; 45.0; 50.0]
  u__ = [61.1 1100.0; 49.643750000000004 1100.0; 0.0 1100.0; 15.275 1100.0; 30.55 1100.0; 15.275 1100.0; 0.0 1100.0; 45.825 1100.0; 0.0 1100.0; 26.73125 1100.0; 26.73125 1100.0]
falsified with robustness -3.527414361510564E-4

statistics
  simulations 3
  total time  7s
  peak memory 1032899 kb

trial 30/50
property □_[11.0, 50.0] ((((throttle < 8.8) && ◇_[0.0, 0.05] (40.0 < throttle)) || ((40.0 < throttle) && ◇_[0.0, 0.05] (throttle < 8.8))) ==> □_[1.0, 5.0] (abs(mu) < 0.008))
algorithm adaptive
  control points: 10 10 10 10 10
  exploration ratio: 0.25
  budget: 100
.

inputs
  t__ = [0.0; 5.0; 10.0; 15.0; 20.0; 25.0; 30.0; 35.0; 40.0; 45.0; 50.0]
  u__ = [0.0 1100.0; 30.55 1100.0; 45.825 1100.0; 0.0 1100.0; 61.1 1100.0; 61.1 1100.0; 0.0 1100.0; 0.0 1100.0; 0.0 1100.0; 0.0 1100.0; 0.0 1100.0]
falsified with robustness -5.892003873917487E-4

statistics
  simulations 1
  total time  2s
  peak memory 1032899 kb

trial 31/50
property □_[11.0, 50.0] ((((throttle < 8.8) && ◇_[0.0, 0.05] (40.0 < throttle)) || ((40.0 < throttle) && ◇_[0.0, 0.05] (throttle < 8.8))) ==> □_[1.0, 5.0] (abs(mu) < 0.008))
algorithm adaptive
  control points: 10 10 10 10 10
  exploration ratio: 0.25
  budget: 100
..

inputs
  t__ = [0.0; 5.0; 10.0; 15.0; 20.0; 25.0; 30.0; 35.0; 40.0; 45.0; 50.0]
  u__ = [0.0 1100.0; 61.1 1100.0; 45.825 1100.0; 0.0 1100.0; 45.825 1100.0; 61.1 1100.0; 61.1 1100.0; 0.0 1100.0; 30.55 1100.0; 61.1 1100.0; 61.1 1100.0]
falsified with robustness -5.689378787157098E-4

statistics
  simulations 2
  total time  4s
  peak memory 1032899 kb

trial 32/50
property □_[11.0, 50.0] ((((throttle < 8.8) && ◇_[0.0, 0.05] (40.0 < throttle)) || ((40.0 < throttle) && ◇_[0.0, 0.05] (throttle < 8.8))) ==> □_[1.0, 5.0] (abs(mu) < 0.008))
algorithm adaptive
  control points: 10 10 10 10 10
  exploration ratio: 0.25
  budget: 100
...

inputs
  t__ = [0.0; 5.0; 10.0; 15.0; 20.0; 25.0; 30.0; 35.0; 40.0; 45.0; 50.0]
  u__ = [61.1 1025.0; 61.1 1025.0; 0.0 1025.0; 30.55 1025.0; 0.0 1025.0; 61.1 1025.0; 0.0 1025.0; 61.1 1025.0; 38.1875 1025.0; 0.0 1025.0; 0.0 1025.0]
falsified with robustness -2.1746630104686748E-5

statistics
  simulations 3
  total time  6s
  peak memory 1032899 kb

trial 33/50
property □_[11.0, 50.0] ((((throttle < 8.8) && ◇_[0.0, 0.05] (40.0 < throttle)) || ((40.0 < throttle) && ◇_[0.0, 0.05] (throttle < 8.8))) ==> □_[1.0, 5.0] (abs(mu) < 0.008))
algorithm adaptive
  control points: 10 10 10 10 10
  exploration ratio: 0.25
  budget: 100
.....

inputs
  t__ = [0.0; 5.0; 10.0; 15.0; 20.0; 25.0; 30.0; 35.0; 40.0; 45.0; 50.0]
  u__ = [61.1 1100.0; 61.1 1100.0; 61.1 1100.0; 45.825 1100.0; 0.0 1100.0; 61.1 1100.0; 30.55 1100.0; 22.9125 1100.0; 30.55 1100.0; 0.0 1100.0; 0.0 1100.0]
falsified with robustness -3.0419779834667954E-4

statistics
  simulations 5
  total time  11s
  peak memory 1032899 kb

trial 34/50
property □_[11.0, 50.0] ((((throttle < 8.8) && ◇_[0.0, 0.05] (40.0 < throttle)) || ((40.0 < throttle) && ◇_[0.0, 0.05] (throttle < 8.8))) ==> □_[1.0, 5.0] (abs(mu) < 0.008))
algorithm adaptive
  control points: 10 10 10 10 10
  exploration ratio: 0.25
  budget: 100
....

inputs
  t__ = [0.0; 5.0; 10.0; 15.0; 20.0; 25.0; 30.0; 35.0; 40.0; 45.0; 50.0]
  u__ = [61.1 1100.0; 30.55 1100.0; 30.55 1100.0; 0.0 1100.0; 61.1 1100.0; 45.825 1100.0; 0.0 1100.0; 61.1 1100.0; 0.0 1100.0; 0.0 1100.0; 0.0 1100.0]
falsified with robustness -6.018365668103501E-4

statistics
  simulations 4
  total time  9s
  peak memory 1032899 kb

trial 35/50
property □_[11.0, 50.0] ((((throttle < 8.8) && ◇_[0.0, 0.05] (40.0 < throttle)) || ((40.0 < throttle) && ◇_[0.0, 0.05] (throttle < 8.8))) ==> □_[1.0, 5.0] (abs(mu) < 0.008))
algorithm adaptive
  control points: 10 10 10 10 10
  exploration ratio: 0.25
  budget: 100
......................

inputs
  t__ = [0.0; 5.0; 10.0; 15.0; 20.0; 25.0; 30.0; 35.0; 40.0; 45.0; 50.0]
  u__ = [30.55 1100.0; 30.55 1100.0; 61.1 1100.0; 53.4625 1100.0; 61.1 1100.0; 61.1 1100.0; 0.0 1100.0; 30.55 1100.0; 22.9125 1100.0; 0.0 1100.0; 0.0 1100.0]
falsified with robustness -5.819890622962356E-4

statistics
  simulations 22
  total time  51s
  peak memory 1053758 kb

trial 36/50
property □_[11.0, 50.0] ((((throttle < 8.8) && ◇_[0.0, 0.05] (40.0 < throttle)) || ((40.0 < throttle) && ◇_[0.0, 0.05] (throttle < 8.8))) ==> □_[1.0, 5.0] (abs(mu) < 0.008))
algorithm adaptive
  control points: 10 10 10 10 10
  exploration ratio: 0.25
  budget: 100
.

inputs
  t__ = [0.0; 5.0; 10.0; 15.0; 20.0; 25.0; 30.0; 35.0; 40.0; 45.0; 50.0]
  u__ = [61.1 1100.0; 38.1875 1100.0; 19.09375 1100.0; 0.0 1100.0; 30.55 1100.0; 15.275 1100.0; 0.0 1100.0; 61.1 1100.0; 0.0 1100.0; 30.55 1100.0; 30.55 1100.0]
falsified with robustness -6.016531731880617E-4

statistics
  simulations 1
  total time  2s
  peak memory 1053758 kb

trial 37/50
property □_[11.0, 50.0] ((((throttle < 8.8) && ◇_[0.0, 0.05] (40.0 < throttle)) || ((40.0 < throttle) && ◇_[0.0, 0.05] (throttle < 8.8))) ==> □_[1.0, 5.0] (abs(mu) < 0.008))
algorithm adaptive
  control points: 10 10 10 10 10
  exploration ratio: 0.25
  budget: 100
.

inputs
  t__ = [0.0; 5.0; 10.0; 15.0; 20.0; 25.0; 30.0; 35.0; 40.0; 45.0; 50.0]
  u__ = [0.0 1100.0; 61.1 1100.0; 61.1 1100.0; 0.0 1100.0; 19.09375 1100.0; 61.1 1100.0; 61.1 1100.0; 30.55 1100.0; 0.0 1100.0; 30.55 1100.0; 30.55 1100.0]
falsified with robustness -6.09704591941547E-4

statistics
  simulations 1
  total time  2s
  peak memory 1053758 kb

trial 38/50
property □_[11.0, 50.0] ((((throttle < 8.8) && ◇_[0.0, 0.05] (40.0 < throttle)) || ((40.0 < throttle) && ◇_[0.0, 0.05] (throttle < 8.8))) ==> □_[1.0, 5.0] (abs(mu) < 0.008))
algorithm adaptive
  control points: 10 10 10 10 10
  exploration ratio: 0.25
  budget: 100
....................

inputs
  t__ = [0.0; 5.0; 10.0; 15.0; 20.0; 25.0; 30.0; 35.0; 40.0; 45.0; 50.0]
  u__ = [61.1 1050.0; 0.0 1050.0; 0.0 1050.0; 61.1 1050.0; 49.643750000000004 1050.0; 30.55 1050.0; 61.1 1050.0; 30.55 1050.0; 45.825 1050.0; 0.0 1050.0; 0.0 1050.0]
falsified with robustness -3.3713604817860177E-5

statistics
  simulations 20
  total time  43s
  peak memory 1053758 kb

trial 39/50
property □_[11.0, 50.0] ((((throttle < 8.8) && ◇_[0.0, 0.05] (40.0 < throttle)) || ((40.0 < throttle) && ◇_[0.0, 0.05] (throttle < 8.8))) ==> □_[1.0, 5.0] (abs(mu) < 0.008))
algorithm adaptive
  control points: 10 10 10 10 10
  exploration ratio: 0.25
  budget: 100
...........

inputs
  t__ = [0.0; 5.0; 10.0; 15.0; 20.0; 25.0; 30.0; 35.0; 40.0; 45.0; 50.0]
  u__ = [61.1 1100.0; 0.0 1100.0; 53.4625 1100.0; 0.0 1100.0; 0.0 1100.0; 61.1 1100.0; 45.825 1100.0; 30.55 1100.0; 30.55 1100.0; 7.6375 1100.0; 7.6375 1100.0]
falsified with robustness -4.934224417845259E-4

statistics
  simulations 11
  total time  24s
  peak memory 1069710 kb

trial 40/50
property □_[11.0, 50.0] ((((throttle < 8.8) && ◇_[0.0, 0.05] (40.0 < throttle)) || ((40.0 < throttle) && ◇_[0.0, 0.05] (throttle < 8.8))) ==> □_[1.0, 5.0] (abs(mu) < 0.008))
algorithm adaptive
  control points: 10 10 10 10 10
  exploration ratio: 0.25
  budget: 100
.............

inputs
  t__ = [0.0; 5.0; 10.0; 15.0; 20.0; 25.0; 30.0; 35.0; 40.0; 45.0; 50.0]
  u__ = [57.28125 1100.0; 61.1 1100.0; 30.55 1100.0; 15.275 1100.0; 15.275 1100.0; 61.1 1100.0; 0.0 1100.0; 0.0 1100.0; 30.55 1100.0; 34.36875 1100.0; 34.36875 1100.0]
falsified with robustness -5.450813621796849E-4

statistics
  simulations 13
  total time  29s
  peak memory 1081342 kb

trial 41/50
property □_[11.0, 50.0] ((((throttle < 8.8) && ◇_[0.0, 0.05] (40.0 < throttle)) || ((40.0 < throttle) && ◇_[0.0, 0.05] (throttle < 8.8))) ==> □_[1.0, 5.0] (abs(mu) < 0.008))
algorithm adaptive
  control points: 10 10 10 10 10
  exploration ratio: 0.25
  budget: 100
......

inputs
  t__ = [0.0; 5.0; 10.0; 15.0; 20.0; 25.0; 30.0; 35.0; 40.0; 45.0; 50.0]
  u__ = [0.0 1100.0; 30.55 1100.0; 61.1 1100.0; 30.55 1100.0; 61.1 1100.0; 0.0 1100.0; 30.55 1100.0; 30.55 1100.0; 61.1 1100.0; 15.275 1100.0; 15.275 1100.0]
falsified with robustness -5.352697058549419E-4

statistics
  simulations 6
  total time  13s
  peak memory 1081342 kb

trial 42/50
property □_[11.0, 50.0] ((((throttle < 8.8) && ◇_[0.0, 0.05] (40.0 < throttle)) || ((40.0 < throttle) && ◇_[0.0, 0.05] (throttle < 8.8))) ==> □_[1.0, 5.0] (abs(mu) < 0.008))
algorithm adaptive
  control points: 10 10 10 10 10
  exploration ratio: 0.25
  budget: 100
........

inputs
  t__ = [0.0; 5.0; 10.0; 15.0; 20.0; 25.0; 30.0; 35.0; 40.0; 45.0; 50.0]
  u__ = [53.4625 1100.0; 0.0 1100.0; 30.55 1100.0; 45.825 1100.0; 30.55 1100.0; 61.1 1100.0; 0.0 1100.0; 61.1 1100.0; 0.0 1100.0; 61.1 1100.0; 61.1 1100.0]
falsified with robustness -6.036222723668841E-4

statistics
  simulations 8
  total time  17s
  peak memory 1081342 kb

trial 43/50
property □_[11.0, 50.0] ((((throttle < 8.8) && ◇_[0.0, 0.05] (40.0 < throttle)) || ((40.0 < throttle) && ◇_[0.0, 0.05] (throttle < 8.8))) ==> □_[1.0, 5.0] (abs(mu) < 0.008))
algorithm adaptive
  control points: 10 10 10 10 10
  exploration ratio: 0.25
  budget: 100
.

inputs
  t__ = [0.0; 5.0; 10.0; 15.0; 20.0; 25.0; 30.0; 35.0; 40.0; 45.0; 50.0]
  u__ = [61.1 1100.0; 61.1 1100.0; 30.55 1100.0; 15.275 1100.0; 0.0 1100.0; 45.825 1100.0; 30.55 1100.0; 61.1 1100.0; 61.1 1100.0; 0.0 1100.0; 0.0 1100.0]
falsified with robustness -5.796032071743243E-4

statistics
  simulations 1
  total time  2s
  peak memory 1081342 kb

trial 44/50
property □_[11.0, 50.0] ((((throttle < 8.8) && ◇_[0.0, 0.05] (40.0 < throttle)) || ((40.0 < throttle) && ◇_[0.0, 0.05] (throttle < 8.8))) ==> □_[1.0, 5.0] (abs(mu) < 0.008))
algorithm adaptive
  control points: 10 10 10 10 10
  exploration ratio: 0.25
  budget: 100
.

inputs
  t__ = [0.0; 5.0; 10.0; 15.0; 20.0; 25.0; 30.0; 35.0; 40.0; 45.0; 50.0]
  u__ = [61.1 1100.0; 0.0 1100.0; 0.0 1100.0; 61.1 1100.0; 30.55 1100.0; 45.825 1100.0; 0.0 1100.0; 61.1 1100.0; 11.45625 1100.0; 30.55 1100.0; 30.55 1100.0]
falsified with robustness -3.7044379238527353E-4

statistics
  simulations 1
  total time  2s
  peak memory 1081342 kb

trial 45/50
property □_[11.0, 50.0] ((((throttle < 8.8) && ◇_[0.0, 0.05] (40.0 < throttle)) || ((40.0 < throttle) && ◇_[0.0, 0.05] (throttle < 8.8))) ==> □_[1.0, 5.0] (abs(mu) < 0.008))
algorithm adaptive
  control points: 10 10 10 10 10
  exploration ratio: 0.25
  budget: 100
......

inputs
  t__ = [0.0; 5.0; 10.0; 15.0; 20.0; 25.0; 30.0; 35.0; 40.0; 45.0; 50.0]
  u__ = [0.0 1100.0; 61.1 1100.0; 61.1 1100.0; 30.55 1100.0; 30.55 1100.0; 45.825 1100.0; 61.1 1100.0; 0.0 1100.0; 61.1 1100.0; 61.1 1100.0; 61.1 1100.0]
falsified with robustness -5.998807171110412E-4

statistics
  simulations 6
  total time  13s
  peak memory 1081342 kb

trial 46/50
property □_[11.0, 50.0] ((((throttle < 8.8) && ◇_[0.0, 0.05] (40.0 < throttle)) || ((40.0 < throttle) && ◇_[0.0, 0.05] (throttle < 8.8))) ==> □_[1.0, 5.0] (abs(mu) < 0.008))
algorithm adaptive
  control points: 10 10 10 10 10
  exploration ratio: 0.25
  budget: 100
.....

inputs
  t__ = [0.0; 5.0; 10.0; 15.0; 20.0; 25.0; 30.0; 35.0; 40.0; 45.0; 50.0]
  u__ = [61.1 1062.5; 0.0 1062.5; 45.825 1062.5; 61.1 1062.5; 30.55 1062.5; 34.36875 1062.5; 0.0 1062.5; 30.55 1062.5; 61.1 1062.5; 0.0 1062.5; 0.0 1062.5]
falsified with robustness -3.4545966138588985E-4

statistics
  simulations 5
  total time  11s
  peak memory 1083794 kb

trial 47/50
property □_[11.0, 50.0] ((((throttle < 8.8) && ◇_[0.0, 0.05] (40.0 < throttle)) || ((40.0 < throttle) && ◇_[0.0, 0.05] (throttle < 8.8))) ==> □_[1.0, 5.0] (abs(mu) < 0.008))
algorithm adaptive
  control points: 10 10 10 10 10
  exploration ratio: 0.25
  budget: 100
.

inputs
  t__ = [0.0; 5.0; 10.0; 15.0; 20.0; 25.0; 30.0; 35.0; 40.0; 45.0; 50.0]
  u__ = [0.0 1100.0; 0.0 1100.0; 45.825 1100.0; 61.1 1100.0; 0.0 1100.0; 61.1 1100.0; 30.55 1100.0; 0.0 1100.0; 22.9125 1100.0; 30.55 1100.0; 30.55 1100.0]
falsified with robustness -5.631315278815732E-4

statistics
  simulations 1
  total time  2s
  peak memory 1087746 kb

trial 48/50
property □_[11.0, 50.0] ((((throttle < 8.8) && ◇_[0.0, 0.05] (40.0 < throttle)) || ((40.0 < throttle) && ◇_[0.0, 0.05] (throttle < 8.8))) ==> □_[1.0, 5.0] (abs(mu) < 0.008))
algorithm adaptive
  control points: 10 10 10 10 10
  exploration ratio: 0.25
  budget: 100
......

inputs
  t__ = [0.0; 5.0; 10.0; 15.0; 20.0; 25.0; 30.0; 35.0; 40.0; 45.0; 50.0]
  u__ = [0.0 1100.0; 0.0 1100.0; 30.55 1100.0; 30.55 1100.0; 61.1 1100.0; 0.0 1100.0; 7.6375 1100.0; 30.55 1100.0; 30.55 1100.0; 0.0 1100.0; 0.0 1100.0]
falsified with robustness -6.090397703795228E-4

statistics
  simulations 6
  total time  13s
  peak memory 1095618 kb

trial 49/50
property □_[11.0, 50.0] ((((throttle < 8.8) && ◇_[0.0, 0.05] (40.0 < throttle)) || ((40.0 < throttle) && ◇_[0.0, 0.05] (throttle < 8.8))) ==> □_[1.0, 5.0] (abs(mu) < 0.008))
algorithm adaptive
  control points: 10 10 10 10 10
  exploration ratio: 0.25
  budget: 100
.

inputs
  t__ = [0.0; 5.0; 10.0; 15.0; 20.0; 25.0; 30.0; 35.0; 40.0; 45.0; 50.0]
  u__ = [45.825 1100.0; 30.55 1100.0; 45.825 1100.0; 0.0 1100.0; 30.55 1100.0; 61.1 1100.0; 0.0 1100.0; 30.55 1100.0; 61.1 1100.0; 30.55 1100.0; 30.55 1100.0]
falsified with robustness -5.998350640974495E-4

statistics
  simulations 1
  total time  2s
  peak memory 1103291 kb

trial 50/50
property □_[11.0, 50.0] ((((throttle < 8.8) && ◇_[0.0, 0.05] (40.0 < throttle)) || ((40.0 < throttle) && ◇_[0.0, 0.05] (throttle < 8.8))) ==> □_[1.0, 5.0] (abs(mu) < 0.008))
algorithm adaptive
  control points: 10 10 10 10 10
  exploration ratio: 0.25
  budget: 100
.......

inputs
  t__ = [0.0; 5.0; 10.0; 15.0; 20.0; 25.0; 30.0; 35.0; 40.0; 45.0; 50.0]
  u__ = [0.0 1100.0; 61.1 1100.0; 30.55 1100.0; 30.55 1100.0; 53.4625 1100.0; 30.55 1100.0; 30.55 1100.0; 0.0 1100.0; 61.1 1100.0; 0.0 1100.0; 0.0 1100.0]
falsified with robustness -6.0410969305736E-4

statistics
  simulations 7
  total time  15s
  peak memory 1103291 kb

bye
